Codigos/maximoVectorPipelineRA/maximoVectorSegmentacionWave.vcd
$timescale 1 ps $end
$scope module uut $end
$var wire 8 ! inputs$0 $end
$var wire 8 " inputs$1 $end
$var wire 8 # inputs$2 $end
$var wire 8 $ inputs$3 $end
$var wire 8 % inputs$4 $end
$var wire 8 & inputs$5 $end
$var wire 8 ' inputs$6 $end
$var wire 8 ( inputs$7 $end
$var wire 8 ) result $end
$var wire 1 * clk $end
$var wire 1 + rst $end
$var wire 1 , valid_in $end
$var wire 1 - valid_out $end
$scope module max1 $end
$var wire 8 . d $end
$var wire 8 / q $end
$var wire 1 0 clock $end
$upscope $end
$scope module max2 $end
$var wire 8 1 d $end
$var wire 8 2 q $end
$var wire 1 3 clock $end
$upscope $end
$scope module max3 $end
$var wire 8 4 d $end
$var wire 8 5 q $end
$var wire 1 6 clock $end
$upscope $end
$scope module max4 $end
$var wire 8 7 d $end
$var wire 8 8 q $end
$var wire 1 9 clock $end
$upscope $end
$scope module valid_stage1 $end
$var wire 1 : d $end
$var wire 1 ; q $end
$var wire 1 < clock $end
$upscope $end
$scope module max1_1 $end
$var wire 8 = d $end
$var wire 8 > q $end
$var wire 1 ? clock $end
$upscope $end
$scope module max1_2 $end
$var wire 8 @ d $end
$var wire 8 A q $end
$var wire 1 B clock $end
$upscope $end
$scope module valid_stage2 $end
$var wire 1 C d $end
$var wire 1 D q $end
$var wire 1 E clock $end
$upscope $end
$scope module final_max $end
$var wire 8 F d $end
$var wire 8 G q $end
$var wire 1 H clock $end
$upscope $end
$scope module valid_stage3 $end
$var wire 1 I d $end
$var wire 1 J q $end
$var wire 1 K clock $end
$upscope $end
$upscope $end
$enddefinitions $end
$dumpvars
b00000000 !
b00000000 "
b00000000 #
b00000000 $
b00000000 %
b00000000 &
b00000000 '
b00000000 (
b00000000 )
0*
1+
0,
0-
b00000000 .
b00000000 /
00
b00000000 1
b00000000 2
03
b00000000 4
b00000000 5
06
b00000000 7
b00000000 8
09
0:
0;
0<
b00000000 =
b00000000 >
0?
b00000000 @
b00000000 A
0B
0C
0D
0E
b00000000 F
b00000000 G
0H
0I
0J
0K
$end
#1
1*
10
13
16
19
1<
1?
1B
1E
1H
1K
#2
0*
0+
00
03
06
09
0<
0?
0B
0E
0H
0K
#3
1*
10
13
16
19
1<
1?
1B
1E
1H
1K
#4
b11001110 !
b11101100 "
b10011100 #
b11111011 $
b11100010 %
b10100110 &
b11110110 '
b11000100 (
0*
1,
b11101100 .
00
b11111011 1
03
b11100010 4
06
b11110110 7
09
1:
0<
0?
0B
0E
0H
0K
#5
1*
b11101100 /
10
b11111011 2
13
b11100010 5
16
b11110110 8
19
1;
1<
b11111011 =
1?
b11110110 @
1B
1C
1E
1H
1K
#6
b10000000 !
b00000000 "
b00110010 #
b01111000 $
b10011100 %
b00110010 &
b01111000 '
b01111111 (
0*
b00000000 .
00
b01111000 1
03
b00110010 4
06
b01111111 7
09
0<
0?
0B
0E
0H
0K
#7
1*
b00000000 /
10
b01111000 2
13
b00110010 5
16
b01111111 8
19
1<
b01111000 =
b11111011 >
1?
b01111111 @
b11110110 A
1B
1D
1E
b11111011 F
1H
1I
1K
#8
b00011110 !
b00110010 "
b10110000 #
b00000000 %
b00111100 &
b01000110 '
b01101110 (
0*
b00110010 .
00
03
b00111100 4
06
b01101110 7
09
0<
0?
0B
0E
0H
0K
#9
b11111011 )
1*
1-
b00110010 /
10
13
b00111100 5
16
b01101110 8
19
1<
b01111000 >
1?
b01101110 @
b01111111 A
1B
1E
b01111111 F
b11111011 G
1H
1J
1K
#10
b00000000 !
b00000000 "
b00000000 #
b00000000 $
b00000000 &
b00000000 '
b00000000 (
0*
b00000000 .
00
b00000000 1
03
b00000000 4
06
b00000000 7
09
0<
0?
0B
0E
0H
0K
#11
b01111111 )
1*
b00000000 /
10
b00000000 2
13
b00000000 5
16
b00000000 8
19
1<
b00000000 =
1?
b00000000 @
b01101110 A
1B
1E
b01111000 F
b01111111 G
1H
1K
#12
0*
00
03
06
09
0<
0?
0B
0E
0H
0K
#13
b01111000 )
1*
10
13
16
19
1<
b00000000 >
1?
b00000000 A
1B
1E
b00000000 F
b01111000 G
1H
1K
#14
0*
00
03
06
09
0<
0?
0B
0E
0H
0K
#15
b00000000 )
1*
10
13
16
19
1<
1?
1B
1E
b00000000 G
1H
1K
