Codigos/sumador/sumadorWave.vcd
$timescale 1 ps $end
$scope module uut $end
$var wire 8 ! a $end
$var wire 8 " b $end
$var wire 9 # sum $end
$upscope $end
$enddefinitions $end
$dumpvars
b10000001 !
b10000001 "
b100000010 #
$end
#1
b10000010 "
b100000011 #
#2
b10000011 "
b100000100 #
#3
b10000100 "
b100000101 #
#4
b10000101 "
b100000110 #
#5
b10000110 "
b100000111 #
#6
b10000111 "
b100001000 #
#7
b10001000 "
b100001001 #
#8
b10001001 "
b100001010 #
#9
b10001010 "
b100001011 #
#10
b10001011 "
b100001100 #
#11
b10001100 "
b100001101 #
#12
b10001101 "
b100001110 #
#13
b10001110 "
b100001111 #
#14
b10001111 "
b100010000 #
#15
b10010000 "
b100010001 #
#16
b10010001 "
b100010010 #
#17
b10010010 "
b100010011 #
#18
b10010011 "
b100010100 #
#19
b10010100 "
b100010101 #
#20
b10010101 "
b100010110 #
#21
b10010110 "
b100010111 #
#22
b10010111 "
b100011000 #
#23
b10011000 "
b100011001 #
#24
b10011001 "
b100011010 #
#25
b10011010 "
b100011011 #
#26
b10011011 "
b100011100 #
#27
b10011100 "
b100011101 #
#28
b10011101 "
b100011110 #
#29
b10011110 "
b100011111 #
#30
b10011111 "
b100100000 #
#31
b10100000 "
b100100001 #
#32
b10100001 "
b100100010 #
#33
b10100010 "
b100100011 #
#34
b10100011 "
b100100100 #
#35
b10100100 "
b100100101 #
#36
b10100101 "
b100100110 #
#37
b10100110 "
b100100111 #
#38
b10100111 "
b100101000 #
#39
b10101000 "
b100101001 #
#40
b10101001 "
b100101010 #
#41
b10101010 "
b100101011 #
#42
b10101011 "
b100101100 #
#43
b10101100 "
b100101101 #
#44
b10101101 "
b100101110 #
#45
b10101110 "
b100101111 #
#46
b10101111 "
b100110000 #
#47
b10110000 "
b100110001 #
#48
b10110001 "
b100110010 #
#49
b10110010 "
b100110011 #
#50
b10110011 "
b100110100 #
#51
b10110100 "
b100110101 #
#52
b10110101 "
b100110110 #
#53
b10110110 "
b100110111 #
#54
b10110111 "
b100111000 #
#55
b10111000 "
b100111001 #
#56
b10111001 "
b100111010 #
#57
b10111010 "
b100111011 #
#58
b10111011 "
b100111100 #
#59
b10111100 "
b100111101 #
#60
b10111101 "
b100111110 #
#61
b10111110 "
b100111111 #
#62
b10111111 "
b101000000 #
#63
b11000000 "
b101000001 #
#64
b11000001 "
b101000010 #
#65
b11000010 "
b101000011 #
#66
b11000011 "
b101000100 #
#67
b11000100 "
b101000101 #
#68
b11000101 "
b101000110 #
#69
b11000110 "
b101000111 #
#70
b11000111 "
b101001000 #
#71
b11001000 "
b101001001 #
#72
b11001001 "
b101001010 #
#73
b11001010 "
b101001011 #
#74
b11001011 "
b101001100 #
#75
b11001100 "
b101001101 #
#76
b11001101 "
b101001110 #
#77
b11001110 "
b101001111 #
#78
b11001111 "
b101010000 #
#79
b11010000 "
b101010001 #
#80
b11010001 "
b101010010 #
#81
b11010010 "
b101010011 #
#82
b11010011 "
b101010100 #
#83
b11010100 "
b101010101 #
#84
b11010101 "
b101010110 #
#85
b11010110 "
b101010111 #
#86
b11010111 "
b101011000 #
#87
b11011000 "
b101011001 #
#88
b11011001 "
b101011010 #
#89
b11011010 "
b101011011 #
#90
b11011011 "
b101011100 #
#91
b11011100 "
b101011101 #
#92
b11011101 "
b101011110 #
#93
b11011110 "
b101011111 #
#94
b11011111 "
b101100000 #
#95
b11100000 "
b101100001 #
#96
b11100001 "
b101100010 #
#97
b11100010 "
b101100011 #
#98
b11100011 "
b101100100 #
#99
b11100100 "
b101100101 #
#100
b11100101 "
b101100110 #
#101
b11100110 "
b101100111 #
#102
b11100111 "
b101101000 #
#103
b11101000 "
b101101001 #
#104
b11101001 "
b101101010 #
#105
b11101010 "
b101101011 #
#106
b11101011 "
b101101100 #
#107
b11101100 "
b101101101 #
#108
b11101101 "
b101101110 #
#109
b11101110 "
b101101111 #
#110
b11101111 "
b101110000 #
#111
b11110000 "
b101110001 #
#112
b11110001 "
b101110010 #
#113
b11110010 "
b101110011 #
#114
b11110011 "
b101110100 #
#115
b11110100 "
b101110101 #
#116
b11110101 "
b101110110 #
#117
b11110110 "
b101110111 #
#118
b11110111 "
b101111000 #
#119
b11111000 "
b101111001 #
#120
b11111001 "
b101111010 #
#121
b11111010 "
b101111011 #
#122
b11111011 "
b101111100 #
#123
b11111100 "
b101111101 #
#124
b11111101 "
b101111110 #
#125
b11111110 "
b101111111 #
#126
b11111111 "
b110000000 #
#127
b00000000 "
b110000001 #
#128
b00000001 "
b110000010 #
#129
b00000010 "
b110000011 #
#130
b00000011 "
b110000100 #
#131
b00000100 "
b110000101 #
#132
b00000101 "
b110000110 #
#133
b00000110 "
b110000111 #
#134
b00000111 "
b110001000 #
#135
b00001000 "
b110001001 #
#136
b00001001 "
b110001010 #
#137
b00001010 "
b110001011 #
#138
b00001011 "
b110001100 #
#139
b00001100 "
b110001101 #
#140
b00001101 "
b110001110 #
#141
b00001110 "
b110001111 #
#142
b00001111 "
b110010000 #
#143
b00010000 "
b110010001 #
#144
b00010001 "
b110010010 #
#145
b00010010 "
b110010011 #
#146
b00010011 "
b110010100 #
#147
b00010100 "
b110010101 #
#148
b00010101 "
b110010110 #
#149
b00010110 "
b110010111 #
#150
b00010111 "
b110011000 #
#151
b00011000 "
b110011001 #
#152
b00011001 "
b110011010 #
#153
b00011010 "
b110011011 #
#154
b00011011 "
b110011100 #
#155
b00011100 "
b110011101 #
#156
b00011101 "
b110011110 #
#157
b00011110 "
b110011111 #
#158
b00011111 "
b110100000 #
#159
b00100000 "
b110100001 #
#160
b00100001 "
b110100010 #
#161
b00100010 "
b110100011 #
#162
b00100011 "
b110100100 #
#163
b00100100 "
b110100101 #
#164
b00100101 "
b110100110 #
#165
b00100110 "
b110100111 #
#166
b00100111 "
b110101000 #
#167
b00101000 "
b110101001 #
#168
b00101001 "
b110101010 #
#169
b00101010 "
b110101011 #
#170
b00101011 "
b110101100 #
#171
b00101100 "
b110101101 #
#172
b00101101 "
b110101110 #
#173
b00101110 "
b110101111 #
#174
b00101111 "
b110110000 #
#175
b00110000 "
b110110001 #
#176
b00110001 "
b110110010 #
#177
b00110010 "
b110110011 #
#178
b00110011 "
b110110100 #
#179
b00110100 "
b110110101 #
#180
b00110101 "
b110110110 #
#181
b00110110 "
b110110111 #
#182
b00110111 "
b110111000 #
#183
b00111000 "
b110111001 #
#184
b00111001 "
b110111010 #
#185
b00111010 "
b110111011 #
#186
b00111011 "
b110111100 #
#187
b00111100 "
b110111101 #
#188
b00111101 "
b110111110 #
#189
b00111110 "
b110111111 #
#190
b00111111 "
b111000000 #
#191
b01000000 "
b111000001 #
#192
b01000001 "
b111000010 #
#193
b01000010 "
b111000011 #
#194
b01000011 "
b111000100 #
#195
b01000100 "
b111000101 #
#196
b01000101 "
b111000110 #
#197
b01000110 "
b111000111 #
#198
b01000111 "
b111001000 #
#199
b01001000 "
b111001001 #
#200
b01001001 "
b111001010 #
#201
b01001010 "
b111001011 #
#202
b01001011 "
b111001100 #
#203
b01001100 "
b111001101 #
#204
b01001101 "
b111001110 #
#205
b01001110 "
b111001111 #
#206
b01001111 "
b111010000 #
#207
b01010000 "
b111010001 #
#208
b01010001 "
b111010010 #
#209
b01010010 "
b111010011 #
#210
b01010011 "
b111010100 #
#211
b01010100 "
b111010101 #
#212
b01010101 "
b111010110 #
#213
b01010110 "
b111010111 #
#214
b01010111 "
b111011000 #
#215
b01011000 "
b111011001 #
#216
b01011001 "
b111011010 #
#217
b01011010 "
b111011011 #
#218
b01011011 "
b111011100 #
#219
b01011100 "
b111011101 #
#220
b01011101 "
b111011110 #
#221
b01011110 "
b111011111 #
#222
b01011111 "
b111100000 #
#223
b01100000 "
b111100001 #
#224
b01100001 "
b111100010 #
#225
b01100010 "
b111100011 #
#226
b01100011 "
b111100100 #
#227
b01100100 "
b111100101 #
#228
b01100101 "
b111100110 #
#229
b01100110 "
b111100111 #
#230
b01100111 "
b111101000 #
#231
b01101000 "
b111101001 #
#232
b01101001 "
b111101010 #
#233
b01101010 "
b111101011 #
#234
b01101011 "
b111101100 #
#235
b01101100 "
b111101101 #
#236
b01101101 "
b111101110 #
#237
b01101110 "
b111101111 #
#238
b01101111 "
b111110000 #
#239
b01110000 "
b111110001 #
#240
b01110001 "
b111110010 #
#241
b01110010 "
b111110011 #
#242
b01110011 "
b111110100 #
#243
b01110100 "
b111110101 #
#244
b01110101 "
b111110110 #
#245
b01110110 "
b111110111 #
#246
b01110111 "
b111111000 #
#247
b01111000 "
b111111001 #
#248
b01111001 "
b111111010 #
#249
b01111010 "
b111111011 #
#250
b01111011 "
b111111100 #
#251
b01111100 "
b111111101 #
#252
b01111101 "
b111111110 #
#253
b01111110 "
b111111111 #
#254
b01111111 "
b000000000 #
#255
b10000010 !
b10000001 "
b100000011 #
#256
b10000010 "
b100000100 #
#257
b10000011 "
b100000101 #
#258
b10000100 "
b100000110 #
#259
b10000101 "
b100000111 #
#260
b10000110 "
b100001000 #
#261
b10000111 "
b100001001 #
#262
b10001000 "
b100001010 #
#263
b10001001 "
b100001011 #
#264
b10001010 "
b100001100 #
#265
b10001011 "
b100001101 #
#266
b10001100 "
b100001110 #
#267
b10001101 "
b100001111 #
#268
b10001110 "
b100010000 #
#269
b10001111 "
b100010001 #
#270
b10010000 "
b100010010 #
#271
b10010001 "
b100010011 #
#272
b10010010 "
b100010100 #
#273
b10010011 "
b100010101 #
#274
b10010100 "
b100010110 #
#275
b10010101 "
b100010111 #
#276
b10010110 "
b100011000 #
#277
b10010111 "
b100011001 #
#278
b10011000 "
b100011010 #
#279
b10011001 "
b100011011 #
#280
b10011010 "
b100011100 #
#281
b10011011 "
b100011101 #
#282
b10011100 "
b100011110 #
#283
b10011101 "
b100011111 #
#284
b10011110 "
b100100000 #
#285
b10011111 "
b100100001 #
#286
b10100000 "
b100100010 #
#287
b10100001 "
b100100011 #
#288
b10100010 "
b100100100 #
#289
b10100011 "
b100100101 #
#290
b10100100 "
b100100110 #
#291
b10100101 "
b100100111 #
#292
b10100110 "
b100101000 #
#293
b10100111 "
b100101001 #
#294
b10101000 "
b100101010 #
#295
b10101001 "
b100101011 #
#296
b10101010 "
b100101100 #
#297
b10101011 "
b100101101 #
#298
b10101100 "
b100101110 #
#299
b10101101 "
b100101111 #
#300
b10101110 "
b100110000 #
#301
b10101111 "
b100110001 #
#302
b10110000 "
b100110010 #
#303
b10110001 "
b100110011 #
#304
b10110010 "
b100110100 #
#305
b10110011 "
b100110101 #
#306
b10110100 "
b100110110 #
#307
b10110101 "
b100110111 #
#308
b10110110 "
b100111000 #
#309
b10110111 "
b100111001 #
#310
b10111000 "
b100111010 #
#311
b10111001 "
b100111011 #
#312
b10111010 "
b100111100 #
#313
b10111011 "
b100111101 #
#314
b10111100 "
b100111110 #
#315
b10111101 "
b100111111 #
#316
b10111110 "
b101000000 #
#317
b10111111 "
b101000001 #
#318
b11000000 "
b101000010 #
#319
b11000001 "
b101000011 #
#320
b11000010 "
b101000100 #
#321
b11000011 "
b101000101 #
#322
b11000100 "
b101000110 #
#323
b11000101 "
b101000111 #
#324
b11000110 "
b101001000 #
#325
b11000111 "
b101001001 #
#326
b11001000 "
b101001010 #
#327
b11001001 "
b101001011 #
#328
b11001010 "
b101001100 #
#329
b11001011 "
b101001101 #
#330
b11001100 "
b101001110 #
#331
b11001101 "
b101001111 #
#332
b11001110 "
b101010000 #
#333
b11001111 "
b101010001 #
#334
b11010000 "
b101010010 #
#335
b11010001 "
b101010011 #
#336
b11010010 "
b101010100 #
#337
b11010011 "
b101010101 #
#338
b11010100 "
b101010110 #
#339
b11010101 "
b101010111 #
#340
b11010110 "
b101011000 #
#341
b11010111 "
b101011001 #
#342
b11011000 "
b101011010 #
#343
b11011001 "
b101011011 #
#344
b11011010 "
b101011100 #
#345
b11011011 "
b101011101 #
#346
b11011100 "
b101011110 #
#347
b11011101 "
b101011111 #
#348
b11011110 "
b101100000 #
#349
b11011111 "
b101100001 #
#350
b11100000 "
b101100010 #
#351
b11100001 "
b101100011 #
#352
b11100010 "
b101100100 #
#353
b11100011 "
b101100101 #
#354
b11100100 "
b101100110 #
#355
b11100101 "
b101100111 #
#356
b11100110 "
b101101000 #
#357
b11100111 "
b101101001 #
#358
b11101000 "
b101101010 #
#359
b11101001 "
b101101011 #
#360
b11101010 "
b101101100 #
#361
b11101011 "
b101101101 #
#362
b11101100 "
b101101110 #
#363
b11101101 "
b101101111 #
#364
b11101110 "
b101110000 #
#365
b11101111 "
b101110001 #
#366
b11110000 "
b101110010 #
#367
b11110001 "
b101110011 #
#368
b11110010 "
b101110100 #
#369
b11110011 "
b101110101 #
#370
b11110100 "
b101110110 #
#371
b11110101 "
b101110111 #
#372
b11110110 "
b101111000 #
#373
b11110111 "
b101111001 #
#374
b11111000 "
b101111010 #
#375
b11111001 "
b101111011 #
#376
b11111010 "
b101111100 #
#377
b11111011 "
b101111101 #
#378
b11111100 "
b101111110 #
#379
b11111101 "
b101111111 #
#380
b11111110 "
b110000000 #
#381
b11111111 "
b110000001 #
#382
b00000000 "
b110000010 #
#383
b00000001 "
b110000011 #
#384
b00000010 "
b110000100 #
#385
b00000011 "
b110000101 #
#386
b00000100 "
b110000110 #
#387
b00000101 "
b110000111 #
#388
b00000110 "
b110001000 #
#389
b00000111 "
b110001001 #
#390
b00001000 "
b110001010 #
#391
b00001001 "
b110001011 #
#392
b00001010 "
b110001100 #
#393
b00001011 "
b110001101 #
#394
b00001100 "
b110001110 #
#395
b00001101 "
b110001111 #
#396
b00001110 "
b110010000 #
#397
b00001111 "
b110010001 #
#398
b00010000 "
b110010010 #
#399
b00010001 "
b110010011 #
#400
b00010010 "
b110010100 #
#401
b00010011 "
b110010101 #
#402
b00010100 "
b110010110 #
#403
b00010101 "
b110010111 #
#404
b00010110 "
b110011000 #
#405
b00010111 "
b110011001 #
#406
b00011000 "
b110011010 #
#407
b00011001 "
b110011011 #
#408
b00011010 "
b110011100 #
#409
b00011011 "
b110011101 #
#410
b00011100 "
b110011110 #
#411
b00011101 "
b110011111 #
#412
b00011110 "
b110100000 #
#413
b00011111 "
b110100001 #
#414
b00100000 "
b110100010 #
#415
b00100001 "
b110100011 #
#416
b00100010 "
b110100100 #
#417
b00100011 "
b110100101 #
#418
b00100100 "
b110100110 #
#419
b00100101 "
b110100111 #
#420
b00100110 "
b110101000 #
#421
b00100111 "
b110101001 #
#422
b00101000 "
b110101010 #
#423
b00101001 "
b110101011 #
#424
b00101010 "
b110101100 #
#425
b00101011 "
b110101101 #
#426
b00101100 "
b110101110 #
#427
b00101101 "
b110101111 #
#428
b00101110 "
b110110000 #
#429
b00101111 "
b110110001 #
#430
b00110000 "
b110110010 #
#431
b00110001 "
b110110011 #
#432
b00110010 "
b110110100 #
#433
b00110011 "
b110110101 #
#434
b00110100 "
b110110110 #
#435
b00110101 "
b110110111 #
#436
b00110110 "
b110111000 #
#437
b00110111 "
b110111001 #
#438
b00111000 "
b110111010 #
#439
b00111001 "
b110111011 #
#440
b00111010 "
b110111100 #
#441
b00111011 "
b110111101 #
#442
b00111100 "
b110111110 #
#443
b00111101 "
b110111111 #
#444
b00111110 "
b111000000 #
#445
b00111111 "
b111000001 #
#446
b01000000 "
b111000010 #
#447
b01000001 "
b111000011 #
#448
b01000010 "
b111000100 #
#449
b01000011 "
b111000101 #
#450
b01000100 "
b111000110 #
#451
b01000101 "
b111000111 #
#452
b01000110 "
b111001000 #
#453
b01000111 "
b111001001 #
#454
b01001000 "
b111001010 #
#455
b01001001 "
b111001011 #
#456
b01001010 "
b111001100 #
#457
b01001011 "
b111001101 #
#458
b01001100 "
b111001110 #
#459
b01001101 "
b111001111 #
#460
b01001110 "
b111010000 #
#461
b01001111 "
b111010001 #
#462
b01010000 "
b111010010 #
#463
b01010001 "
b111010011 #
#464
b01010010 "
b111010100 #
#465
b01010011 "
b111010101 #
#466
b01010100 "
b111010110 #
#467
b01010101 "
b111010111 #
#468
b01010110 "
b111011000 #
#469
b01010111 "
b111011001 #
#470
b01011000 "
b111011010 #
#471
b01011001 "
b111011011 #
#472
b01011010 "
b111011100 #
#473
b01011011 "
b111011101 #
#474
b01011100 "
b111011110 #
#475
b01011101 "
b111011111 #
#476
b01011110 "
b111100000 #
#477
b01011111 "
b111100001 #
#478
b01100000 "
b111100010 #
#479
b01100001 "
b111100011 #
#480
b01100010 "
b111100100 #
#481
b01100011 "
b111100101 #
#482
b01100100 "
b111100110 #
#483
b01100101 "
b111100111 #
#484
b01100110 "
b111101000 #
#485
b01100111 "
b111101001 #
#486
b01101000 "
b111101010 #
#487
b01101001 "
b111101011 #
#488
b01101010 "
b111101100 #
#489
b01101011 "
b111101101 #
#490
b01101100 "
b111101110 #
#491
b01101101 "
b111101111 #
#492
b01101110 "
b111110000 #
#493
b01101111 "
b111110001 #
#494
b01110000 "
b111110010 #
#495
b01110001 "
b111110011 #
#496
b01110010 "
b111110100 #
#497
b01110011 "
b111110101 #
#498
b01110100 "
b111110110 #
#499
b01110101 "
b111110111 #
#500
b01110110 "
b111111000 #
#501
b01110111 "
b111111001 #
#502
b01111000 "
b111111010 #
#503
b01111001 "
b111111011 #
#504
b01111010 "
b111111100 #
#505
b01111011 "
b111111101 #
#506
b01111100 "
b111111110 #
#507
b01111101 "
b111111111 #
#508
b01111110 "
b000000000 #
#509
b01111111 "
b000000001 #
#510
b10000011 !
b10000001 "
b100000100 #
#511
b10000010 "
b100000101 #
#512
b10000011 "
b100000110 #
#513
b10000100 "
b100000111 #
#514
b10000101 "
b100001000 #
#515
b10000110 "
b100001001 #
#516
b10000111 "
b100001010 #
#517
b10001000 "
b100001011 #
#518
b10001001 "
b100001100 #
#519
b10001010 "
b100001101 #
#520
b10001011 "
b100001110 #
#521
b10001100 "
b100001111 #
#522
b10001101 "
b100010000 #
#523
b10001110 "
b100010001 #
#524
b10001111 "
b100010010 #
#525
b10010000 "
b100010011 #
#526
b10010001 "
b100010100 #
#527
b10010010 "
b100010101 #
#528
b10010011 "
b100010110 #
#529
b10010100 "
b100010111 #
#530
b10010101 "
b100011000 #
#531
b10010110 "
b100011001 #
#532
b10010111 "
b100011010 #
#533
b10011000 "
b100011011 #
#534
b10011001 "
b100011100 #
#535
b10011010 "
b100011101 #
#536
b10011011 "
b100011110 #
#537
b10011100 "
b100011111 #
#538
b10011101 "
b100100000 #
#539
b10011110 "
b100100001 #
#540
b10011111 "
b100100010 #
#541
b10100000 "
b100100011 #
#542
b10100001 "
b100100100 #
#543
b10100010 "
b100100101 #
#544
b10100011 "
b100100110 #
#545
b10100100 "
b100100111 #
#546
b10100101 "
b100101000 #
#547
b10100110 "
b100101001 #
#548
b10100111 "
b100101010 #
#549
b10101000 "
b100101011 #
#550
b10101001 "
b100101100 #
#551
b10101010 "
b100101101 #
#552
b10101011 "
b100101110 #
#553
b10101100 "
b100101111 #
#554
b10101101 "
b100110000 #
#555
b10101110 "
b100110001 #
#556
b10101111 "
b100110010 #
#557
b10110000 "
b100110011 #
#558
b10110001 "
b100110100 #
#559
b10110010 "
b100110101 #
#560
b10110011 "
b100110110 #
#561
b10110100 "
b100110111 #
#562
b10110101 "
b100111000 #
#563
b10110110 "
b100111001 #
#564
b10110111 "
b100111010 #
#565
b10111000 "
b100111011 #
#566
b10111001 "
b100111100 #
#567
b10111010 "
b100111101 #
#568
b10111011 "
b100111110 #
#569
b10111100 "
b100111111 #
#570
b10111101 "
b101000000 #
#571
b10111110 "
b101000001 #
#572
b10111111 "
b101000010 #
#573
b11000000 "
b101000011 #
#574
b11000001 "
b101000100 #
#575
b11000010 "
b101000101 #
#576
b11000011 "
b101000110 #
#577
b11000100 "
b101000111 #
#578
b11000101 "
b101001000 #
#579
b11000110 "
b101001001 #
#580
b11000111 "
b101001010 #
#581
b11001000 "
b101001011 #
#582
b11001001 "
b101001100 #
#583
b11001010 "
b101001101 #
#584
b11001011 "
b101001110 #
#585
b11001100 "
b101001111 #
#586
b11001101 "
b101010000 #
#587
b11001110 "
b101010001 #
#588
b11001111 "
b101010010 #
#589
b11010000 "
b101010011 #
#590
b11010001 "
b101010100 #
#591
b11010010 "
b101010101 #
#592
b11010011 "
b101010110 #
#593
b11010100 "
b101010111 #
#594
b11010101 "
b101011000 #
#595
b11010110 "
b101011001 #
#596
b11010111 "
b101011010 #
#597
b11011000 "
b101011011 #
#598
b11011001 "
b101011100 #
#599
b11011010 "
b101011101 #
#600
b11011011 "
b101011110 #
#601
b11011100 "
b101011111 #
#602
b11011101 "
b101100000 #
#603
b11011110 "
b101100001 #
#604
b11011111 "
b101100010 #
#605
b11100000 "
b101100011 #
#606
b11100001 "
b101100100 #
#607
b11100010 "
b101100101 #
#608
b11100011 "
b101100110 #
#609
b11100100 "
b101100111 #
#610
b11100101 "
b101101000 #
#611
b11100110 "
b101101001 #
#612
b11100111 "
b101101010 #
#613
b11101000 "
b101101011 #
#614
b11101001 "
b101101100 #
#615
b11101010 "
b101101101 #
#616
b11101011 "
b101101110 #
#617
b11101100 "
b101101111 #
#618
b11101101 "
b101110000 #
#619
b11101110 "
b101110001 #
#620
b11101111 "
b101110010 #
#621
b11110000 "
b101110011 #
#622
b11110001 "
b101110100 #
#623
b11110010 "
b101110101 #
#624
b11110011 "
b101110110 #
#625
b11110100 "
b101110111 #
#626
b11110101 "
b101111000 #
#627
b11110110 "
b101111001 #
#628
b11110111 "
b101111010 #
#629
b11111000 "
b101111011 #
#630
b11111001 "
b101111100 #
#631
b11111010 "
b101111101 #
#632
b11111011 "
b101111110 #
#633
b11111100 "
b101111111 #
#634
b11111101 "
b110000000 #
#635
b11111110 "
b110000001 #
#636
b11111111 "
b110000010 #
#637
b00000000 "
b110000011 #
#638
b00000001 "
b110000100 #
#639
b00000010 "
b110000101 #
#640
b00000011 "
b110000110 #
#641
b00000100 "
b110000111 #
#642
b00000101 "
b110001000 #
#643
b00000110 "
b110001001 #
#644
b00000111 "
b110001010 #
#645
b00001000 "
b110001011 #
#646
b00001001 "
b110001100 #
#647
b00001010 "
b110001101 #
#648
b00001011 "
b110001110 #
#649
b00001100 "
b110001111 #
#650
b00001101 "
b110010000 #
#651
b00001110 "
b110010001 #
#652
b00001111 "
b110010010 #
#653
b00010000 "
b110010011 #
#654
b00010001 "
b110010100 #
#655
b00010010 "
b110010101 #
#656
b00010011 "
b110010110 #
#657
b00010100 "
b110010111 #
#658
b00010101 "
b110011000 #
#659
b00010110 "
b110011001 #
#660
b00010111 "
b110011010 #
#661
b00011000 "
b110011011 #
#662
b00011001 "
b110011100 #
#663
b00011010 "
b110011101 #
#664
b00011011 "
b110011110 #
#665
b00011100 "
b110011111 #
#666
b00011101 "
b110100000 #
#667
b00011110 "
b110100001 #
#668
b00011111 "
b110100010 #
#669
b00100000 "
b110100011 #
#670
b00100001 "
b110100100 #
#671
b00100010 "
b110100101 #
#672
b00100011 "
b110100110 #
#673
b00100100 "
b110100111 #
#674
b00100101 "
b110101000 #
#675
b00100110 "
b110101001 #
#676
b00100111 "
b110101010 #
#677
b00101000 "
b110101011 #
#678
b00101001 "
b110101100 #
#679
b00101010 "
b110101101 #
#680
b00101011 "
b110101110 #
#681
b00101100 "
b110101111 #
#682
b00101101 "
b110110000 #
#683
b00101110 "
b110110001 #
#684
b00101111 "
b110110010 #
#685
b00110000 "
b110110011 #
#686
b00110001 "
b110110100 #
#687
b00110010 "
b110110101 #
#688
b00110011 "
b110110110 #
#689
b00110100 "
b110110111 #
#690
b00110101 "
b110111000 #
#691
b00110110 "
b110111001 #
#692
b00110111 "
b110111010 #
#693
b00111000 "
b110111011 #
#694
b00111001 "
b110111100 #
#695
b00111010 "
b110111101 #
#696
b00111011 "
b110111110 #
#697
b00111100 "
b110111111 #
#698
b00111101 "
b111000000 #
#699
b00111110 "
b111000001 #
#700
b00111111 "
b111000010 #
#701
b01000000 "
b111000011 #
#702
b01000001 "
b111000100 #
#703
b01000010 "
b111000101 #
#704
b01000011 "
b111000110 #
#705
b01000100 "
b111000111 #
#706
b01000101 "
b111001000 #
#707
b01000110 "
b111001001 #
#708
b01000111 "
b111001010 #
#709
b01001000 "
b111001011 #
#710
b01001001 "
b111001100 #
#711
b01001010 "
b111001101 #
#712
b01001011 "
b111001110 #
#713
b01001100 "
b111001111 #
#714
b01001101 "
b111010000 #
#715
b01001110 "
b111010001 #
#716
b01001111 "
b111010010 #
#717
b01010000 "
b111010011 #
#718
b01010001 "
b111010100 #
#719
b01010010 "
b111010101 #
#720
b01010011 "
b111010110 #
#721
b01010100 "
b111010111 #
#722
b01010101 "
b111011000 #
#723
b01010110 "
b111011001 #
#724
b01010111 "
b111011010 #
#725
b01011000 "
b111011011 #
#726
b01011001 "
b111011100 #
#727
b01011010 "
b111011101 #
#728
b01011011 "
b111011110 #
#729
b01011100 "
b111011111 #
#730
b01011101 "
b111100000 #
#731
b01011110 "
b111100001 #
#732
b01011111 "
b111100010 #
#733
b01100000 "
b111100011 #
#734
b01100001 "
b111100100 #
#735
b01100010 "
b111100101 #
#736
b01100011 "
b111100110 #
#737
b01100100 "
b111100111 #
#738
b01100101 "
b111101000 #
#739
b01100110 "
b111101001 #
#740
b01100111 "
b111101010 #
#741
b01101000 "
b111101011 #
#742
b01101001 "
b111101100 #
#743
b01101010 "
b111101101 #
#744
b01101011 "
b111101110 #
#745
b01101100 "
b111101111 #
#746
b01101101 "
b111110000 #
#747
b01101110 "
b111110001 #
#748
b01101111 "
b111110010 #
#749
b01110000 "
b111110011 #
#750
b01110001 "
b111110100 #
#751
b01110010 "
b111110101 #
#752
b01110011 "
b111110110 #
#753
b01110100 "
b111110111 #
#754
b01110101 "
b111111000 #
#755
b01110110 "
b111111001 #
#756
b01110111 "
b111111010 #
#757
b01111000 "
b111111011 #
#758
b01111001 "
b111111100 #
#759
b01111010 "
b111111101 #
#760
b01111011 "
b111111110 #
#761
b01111100 "
b111111111 #
#762
b01111101 "
b000000000 #
#763
b01111110 "
b000000001 #
#764
b01111111 "
b000000010 #
#765
b10000100 !
b10000001 "
b100000101 #
#766
b10000010 "
b100000110 #
#767
b10000011 "
b100000111 #
#768
b10000100 "
b100001000 #
#769
b10000101 "
b100001001 #
#770
b10000110 "
b100001010 #
#771
b10000111 "
b100001011 #
#772
b10001000 "
b100001100 #
#773
b10001001 "
b100001101 #
#774
b10001010 "
b100001110 #
#775
b10001011 "
b100001111 #
#776
b10001100 "
b100010000 #
#777
b10001101 "
b100010001 #
#778
b10001110 "
b100010010 #
#779
b10001111 "
b100010011 #
#780
b10010000 "
b100010100 #
#781
b10010001 "
b100010101 #
#782
b10010010 "
b100010110 #
#783
b10010011 "
b100010111 #
#784
b10010100 "
b100011000 #
#785
b10010101 "
b100011001 #
#786
b10010110 "
b100011010 #
#787
b10010111 "
b100011011 #
#788
b10011000 "
b100011100 #
#789
b10011001 "
b100011101 #
#790
b10011010 "
b100011110 #
#791
b10011011 "
b100011111 #
#792
b10011100 "
b100100000 #
#793
b10011101 "
b100100001 #
#794
b10011110 "
b100100010 #
#795
b10011111 "
b100100011 #
#796
b10100000 "
b100100100 #
#797
b10100001 "
b100100101 #
#798
b10100010 "
b100100110 #
#799
b10100011 "
b100100111 #
#800
b10100100 "
b100101000 #
#801
b10100101 "
b100101001 #
#802
b10100110 "
b100101010 #
#803
b10100111 "
b100101011 #
#804
b10101000 "
b100101100 #
#805
b10101001 "
b100101101 #
#806
b10101010 "
b100101110 #
#807
b10101011 "
b100101111 #
#808
b10101100 "
b100110000 #
#809
b10101101 "
b100110001 #
#810
b10101110 "
b100110010 #
#811
b10101111 "
b100110011 #
#812
b10110000 "
b100110100 #
#813
b10110001 "
b100110101 #
#814
b10110010 "
b100110110 #
#815
b10110011 "
b100110111 #
#816
b10110100 "
b100111000 #
#817
b10110101 "
b100111001 #
#818
b10110110 "
b100111010 #
#819
b10110111 "
b100111011 #
#820
b10111000 "
b100111100 #
#821
b10111001 "
b100111101 #
#822
b10111010 "
b100111110 #
#823
b10111011 "
b100111111 #
#824
b10111100 "
b101000000 #
#825
b10111101 "
b101000001 #
#826
b10111110 "
b101000010 #
#827
b10111111 "
b101000011 #
#828
b11000000 "
b101000100 #
#829
b11000001 "
b101000101 #
#830
b11000010 "
b101000110 #
#831
b11000011 "
b101000111 #
#832
b11000100 "
b101001000 #
#833
b11000101 "
b101001001 #
#834
b11000110 "
b101001010 #
#835
b11000111 "
b101001011 #
#836
b11001000 "
b101001100 #
#837
b11001001 "
b101001101 #
#838
b11001010 "
b101001110 #
#839
b11001011 "
b101001111 #
#840
b11001100 "
b101010000 #
#841
b11001101 "
b101010001 #
#842
b11001110 "
b101010010 #
#843
b11001111 "
b101010011 #
#844
b11010000 "
b101010100 #
#845
b11010001 "
b101010101 #
#846
b11010010 "
b101010110 #
#847
b11010011 "
b101010111 #
#848
b11010100 "
b101011000 #
#849
b11010101 "
b101011001 #
#850
b11010110 "
b101011010 #
#851
b11010111 "
b101011011 #
#852
b11011000 "
b101011100 #
#853
b11011001 "
b101011101 #
#854
b11011010 "
b101011110 #
#855
b11011011 "
b101011111 #
#856
b11011100 "
b101100000 #
#857
b11011101 "
b101100001 #
#858
b11011110 "
b101100010 #
#859
b11011111 "
b101100011 #
#860
b11100000 "
b101100100 #
#861
b11100001 "
b101100101 #
#862
b11100010 "
b101100110 #
#863
b11100011 "
b101100111 #
#864
b11100100 "
b101101000 #
#865
b11100101 "
b101101001 #
#866
b11100110 "
b101101010 #
#867
b11100111 "
b101101011 #
#868
b11101000 "
b101101100 #
#869
b11101001 "
b101101101 #
#870
b11101010 "
b101101110 #
#871
b11101011 "
b101101111 #
#872
b11101100 "
b101110000 #
#873
b11101101 "
b101110001 #
