Codigos/ArbolSumadoresSegmentacion/ArbolSumadoresSegmentacionWave.vcd
$timescale 1 ps $end
$scope module uut $end
$var wire 8 ! inputs$0 $end
$var wire 8 " inputs$1 $end
$var wire 8 # inputs$2 $end
$var wire 8 $ inputs$3 $end
$var wire 8 % inputs$4 $end
$var wire 8 & inputs$5 $end
$var wire 8 ' inputs$6 $end
$var wire 8 ( inputs$7 $end
$var wire 11 ) result $end
$var wire 1 * clk $end
$var wire 1 + rstn $end
$scope module sum1 $end
$var wire 9 , d $end
$var wire 9 - q $end
$var wire 1 . clock $end
$upscope $end
$scope module sum2 $end
$var wire 9 / d $end
$var wire 9 0 q $end
$var wire 1 1 clock $end
$upscope $end
$scope module sum3 $end
$var wire 9 2 d $end
$var wire 9 3 q $end
$var wire 1 4 clock $end
$upscope $end
$scope module sum4 $end
$var wire 9 5 d $end
$var wire 9 6 q $end
$var wire 1 7 clock $end
$upscope $end
$scope module sum1_1 $end
$var wire 10 8 d $end
$var wire 10 9 q $end
$var wire 1 : clock $end
$upscope $end
$scope module sum1_2 $end
$var wire 10 ; d $end
$var wire 10 < q $end
$var wire 1 = clock $end
$upscope $end
$scope module final_sum $end
$var wire 11 > d $end
$var wire 11 ? q $end
$var wire 1 @ clock $end
$upscope $end
$upscope $end
$enddefinitions $end
$dumpvars
b00000000 !
b00000000 "
b00000000 #
b00000000 $
b00000000 %
b00000000 &
b00000000 '
b00000000 (
b00000000000 )
0*
0+
b000000000 ,
b000000000 -
0.
b000000000 /
b000000000 0
01
b000000000 2
b000000000 3
04
b000000000 5
b000000000 6
07
b0000000000 8
b0000000000 9
0:
b0000000000 ;
b0000000000 <
0=
b00000000000 >
b00000000000 ?
0@
$end
#1
1*
1.
11
14
17
1:
1=
1@
#2
0*
1+
0.
01
04
07
0:
0=
0@
#3
1*
1.
11
14
17
1:
1=
1@
#4
b11111111 "
b00000010 #
b00000011 $
b00000100 %
b00000101 &
b00000110 '
b11111001 (
0*
b111111111 ,
0.
b000000101 /
01
b000001001 2
04
b111111111 5
07
0:
0=
0@
#5
1*
b111111111 -
1.
b000000101 0
11
b000001001 3
14
b111111111 6
17
b0000000100 8
1:
b0000001000 ;
1=
1@
#6
b10000001 !
b10000001 "
b10000001 #
b10000001 $
b10000001 %
b10000001 &
b10000001 '
b10000001 (
0*
b100000010 ,
0.
b100000010 /
01
b100000010 2
04
b100000010 5
07
0:
0=
0@
#7
1*
b100000010 -
1.
b100000010 0
11
b100000010 3
14
b100000010 6
17
b1000000100 8
b0000000100 9
1:
b1000000100 ;
b0000001000 <
1=
b00000001100 >
1@
#8
b00001010 !
b00001111 "
b00010100 #
b00000101 $
b00011110 %
b00011001 &
b00001100 '
b00001000 (
0*
b000011001 ,
0.
b000011001 /
01
b000110111 2
04
b000010100 5
07
0:
0=
0@
#9
b00000001100 )
1*
b000011001 -
1.
b000011001 0
11
b000110111 3
14
b000010100 6
17
b0000110010 8
b1000000100 9
1:
b0001001011 ;
b1000000100 <
1=
b10000001000 >
b00000001100 ?
1@
#10
b01111111 !
b01111111 "
b01111111 #
b01111111 $
b01111111 %
b01111111 &
b01111111 '
b01111111 (
0*
b011111110 ,
0.
b011111110 /
01
b011111110 2
04
b011111110 5
07
0:
0=
0@
#11
b10000001000 )
1*
b011111110 -
1.
b011111110 0
11
b011111110 3
14
b011111110 6
17
b0111111100 8
b0000110010 9
1:
b0111111100 ;
b0001001011 <
1=
b00001111101 >
b10000001000 ?
1@
#12
b00000000 !
b00000000 "
b00000000 #
b00000000 $
b00000000 %
b00000000 &
b00000000 '
b00000000 (
0*
b000000000 ,
0.
b000000000 /
01
b000000000 2
04
b000000000 5
07
0:
0=
0@
#13
b00001111101 )
1*
b000000000 -
1.
b000000000 0
11
b000000000 3
14
b000000000 6
17
b0000000000 8
b0111111100 9
1:
b0000000000 ;
b0111111100 <
1=
b01111111000 >
b00001111101 ?
1@
#14
0*
0.
01
04
07
0:
0=
0@
#15
b01111111000 )
1*
1.
11
14
17
b0000000000 9
1:
b0000000000 <
1=
b00000000000 >
b01111111000 ?
1@
